%YAML 1.1
%TAG !u! tag:unity3d.com,2011:
--- !u!114 &11400000
MonoBehaviour:
  m_ObjectHideFlags: 0
  m_PrefabParentObject: {fileID: 0}
  m_PrefabInternal: {fileID: 0}
  m_GameObject: {fileID: 0}
  m_Enabled: 1
  m_EditorHideFlags: 0
  m_Script: {fileID: 11500000, guid: ae80ab8470953884c8e5e2ecdf0fddd7, type: 3}
  m_Name: Dwarf Whale
  m_EditorClassIdentifier: 
  ID: 
  ShadowSize: 2.5
  BaitDropped: {fileID: 11400000, guid: 7575b667166c62947a05642734e04e89, type: 2}
  FavoredBait:
  - {fileID: 11400000, guid: f0028463785b6c6489c84cef02599dae, type: 2}
  - {fileID: 11400000, guid: c0d3354476c982e41975f87cb8a068c0, type: 2}
